{
    "workbench.editor.enablePreview": false,
    "extensions.ignoreRecommendations": false,
    "editor.wordWrap": "on",
    "workbench.colorTheme": "Monokai",
    "java.configuration.checkProjectSettingsExclusions": false,
    "editor.suggestSelection": "first",
    "vsintellicode.modify.editor.suggestSelection": "automaticallyOverrodeDefaultValue",
    "[elixir]": {
        "editor.tabSize": 2,
        "editor.defaultFormatter": "sammkj.vscode-elixir-formatter",
        "editor.formatOnSave": false
    },
    "[ruby]": {
        "editor.tabSize": 2
    },
    "python.languageServer": "Microsoft",
    "git.inputValidationSubjectLength": 72,
    "workbench.editor.untitled.labelFormat": "name"
}
